<?xml version="1.0" encoding="UTF-8" standalone="no"?>
<!-- Created with Inkscape (http://www.inkscape.org/) -->

<svg
   xmlns:dc="http://purl.org/dc/elements/1.1/"
   xmlns:cc="http://creativecommons.org/ns#"
   xmlns:rdf="http://www.w3.org/1999/02/22-rdf-syntax-ns#"
   xmlns:svg="http://www.w3.org/2000/svg"
   xmlns="http://www.w3.org/2000/svg"
   xmlns:sodipodi="http://sodipodi.sourceforge.net/DTD/sodipodi-0.dtd"
   xmlns:inkscape="http://www.inkscape.org/namespaces/inkscape"
   width="210mm"
   height="297mm"
   viewBox="0 0 210 297"
   version="1.1"
   id="svg8"
   inkscape:version="0.92.4 (5da689c313, 2019-01-14)"
   sodipodi:docname="slave.svg">
  <defs
     id="defs2" />
  <sodipodi:namedview
     id="base"
     pagecolor="#ffffff"
     bordercolor="#666666"
     borderopacity="1.0"
     inkscape:pageopacity="0.0"
     inkscape:pageshadow="2"
     inkscape:zoom="3.959798"
     inkscape:cx="272.69558"
     inkscape:cy="845.26148"
     inkscape:document-units="mm"
     inkscape:current-layer="layer1"
     showgrid="false"
     inkscape:window-width="1920"
     inkscape:window-height="1016"
     inkscape:window-x="0"
     inkscape:window-y="27"
     inkscape:window-maximized="1" />
  <metadata
     id="metadata5">
    <rdf:RDF>
      <cc:Work
         rdf:about="">
        <dc:format>image/svg+xml</dc:format>
        <dc:type
           rdf:resource="http://purl.org/dc/dcmitype/StillImage" />
        <dc:title></dc:title>
      </cc:Work>
    </rdf:RDF>
  </metadata>
  <g
     inkscape:label="Layer 1"
     inkscape:groupmode="layer"
     id="layer1">
    <text
       xml:space="preserve"
       style="font-style:normal;font-weight:normal;font-size:3.52777767px;line-height:1.25;font-family:sans-serif;letter-spacing:0px;word-spacing:0px;fill:#000000;fill-opacity:1;stroke:none;stroke-width:0.26458332"
       x="32.505951"
       y="50.559521"
       id="text12"><tspan
         sodipodi:role="line"
         id="tspan10"
         x="32.505951"
         y="50.559521"
         style="font-style:normal;font-variant:normal;font-weight:normal;font-stretch:normal;font-family:slave;-inkscape-font-specification:slave;stroke-width:0.26458332">abcdefghijklmnopqrstuvwxyz</tspan><tspan
         sodipodi:role="line"
         x="32.505951"
         y="55.111179"
         style="font-style:normal;font-variant:normal;font-weight:normal;font-stretch:normal;font-family:slave;-inkscape-font-specification:slave;stroke-width:0.26458332"
         id="tspan14">ABCDEFGHIJKLMNOPQRSTUVWXYZ</tspan><tspan
         sodipodi:role="line"
         x="32.505951"
         y="59.662842"
         style="font-style:normal;font-variant:normal;font-weight:normal;font-stretch:normal;font-family:slave;-inkscape-font-specification:slave;stroke-width:0.26458332"
         id="tspan16">+&quot;*ç%&amp;/(a) ~-.,:;àéèüäö</tspan></text>
  </g>
</svg>
